14
9
30 40 50 60 70 80 90 100 110
13
12 13 14 15 16 17 18 19 20 21 22 23 24
0.9246  0.9246  0.9248  0.925   0.9252  0.9254  0.9256  0.9258  0.926   0.9267  0.925   0.924   0.9235
0.925   0.9307  0.9327  0.9346  0.9357  0.937   0.9375  0.9375  0.9374  0.9374  0.9373  0.9372  0.9322
0.92    0.9207  0.9335  0.9372  0.9413  0.9435  0.9449  0.9451  0.9453  0.9454  0.9453  0.9446  0.9435
0.915   0.9215  0.9305  0.935   0.94    0.9441  0.9465  0.9474  0.948   0.9488  0.949   0.949   0.949
0.0     0.9155  0.922   0.928   0.936   0.941   0.9448  0.9469  0.948   0.9498  0.9504  0.9509  0.9515
0.0     0.91    0.915   0.92    0.93    0.9364  0.9412  0.9446  0.9468  0.949   0.95    0.9509  0.9515
0.0     0.0     0.0     0.0     0.922   0.929   0.9358  0.9407  0.9442  0.9469  0.9483  0.9496  0.9505
0.0     0.0     0.0     0.0     0.0     0.92    0.9275  0.9347  0.9399  0.9438  0.946   0.9477  0.949
0.0     0.0     0.0     0.0     0.0     0.0     0.0     0.9257  0.933   0.94    0.9433  0.9453  0.947
