%!PS-Adobe-3.0
%%Title: Multiplicador Sequencial e Combinacional
%%DocumentNeededResources: font Courier Courier-Bold Courier-Italic Courier-BoldItalic Helvetica Helvetica-Bold Helvetica-Oblique Helvetica-BoldOblique Times-Roman Times-Bold Times-Italic Times-BoldItalic Symbol Symbol Symbol Symbol
%%Creator: Vinicius Massuchetto,,, and TKGate 2.0-b10
%%CreationDate: 2 December 2009
%%DocumentPaperSizes: A4
%%Pages: 1
%%Orientation: Landscape
%%EndComments
%
% Copyright (C) 1987-2005 by Jeffery P. Hansen
%    This program (the Postscript Prolog) is free software; you can redistribute
%    it and/or modify it under the terms of the GNU General Public License
%    as published by the Free Software Foundation; either version 2 of the
%    License, or (at your option) any later version.
%
%    This program is distributed in the hope that it will be useful,
%    but WITHOUT ANY WARRANTY; without even the implied warranty of
%    MERCHANTABILITY or FITNESS FOR A PARTICULAR PURPOSE.  See the
%    GNU General Public License for more details.
%
%    You should have received a copy of the GNU General Public License
%    along with this program; if not, write to the Free Software
%    Foundation, Inc., 675 Mass Ave, Cambridge, MA 02139, USA.
%

/isTrace false def
/LogoWidth 60 def
/PBsize 60 def

%
% /key font defLatin1
%
% Define key as a latin-1 version of font 
%
/defLatin1 {
  dup length dict begin
    {1 index /FID ne {def} {pop pop} ifelse} forall
    /Encoding ISOLatin1Encoding def
    currentdict
  end
  definefont pop
} def

% Calculate the height of an equalateral triangle with the given sides.
/theight {
	2 div
	3 sqrt
	mul
} bind def
%
% Genaral parameters to start a gate.
%
% x y r startgate
%
/startgate {
	gsave
	1 setlinewidth
	3 1 roll
	translate
	rotate
	1 -1 scale
	newpath
} bind def
%
% x y r startnorotgate
%
/startnorotgate {
  pop 0 startgate
} def
%
% Genaral parameters to start a gate (with position adjustment)
%
% x y r [[][][][]] startgate
%
/adjstartgate {
  gsave
  1 setlinewidth
  1 index 90 div neg cvi get {} forall	% x y r dx dy
  exch 5 -1 roll add exch 4 -1 roll add
  translate
  rotate
  1 -1 scale
  newpath
} bind def
%
% x y r adjstartnorotgate
%
/adjstartnorotgate {
  exch pop 0 exch adjstartgate
} def
%
% Wire
/wire {
	gsave
	10 div
	setlinewidth
	newpath
	moveto lineto
	stroke
	grestore
} bind def
%
% (l) j x y wirelabel
%
% BetweenLeftAndRight 0x1
% AtRight 0x2
% AtLeft 0x4
% BetweenTopAndBottom 0x8
% AtBaseline 0x10
% AtTop 0x20
% AtBottom 0x40
%
/wirelabel {
  gsave
  translate
  8 rfont
  3 dict begin

  /just exch def
  /dx 0 def
  /dy 0 def

  just 64 and 0 ne {  %AtBottom
    /dy -3 def  } if
  just 32 and 0 ne {  %AtTop
    /dy 8 def  } if
  just 8 and 0 ne {  %BetweenTopAndBottom
    /dy 4 def  } if

  just 4 and 0 ne {  % AtLeft
    0 dy LJ
  } if
  just 2 and 0 ne {  % AtRight
    0 dy RJ
  } if
  just 1 and 0 ne {  % BetweenLeftAndRight
    0 dy CT
  } if
  end
  grestore
} def
%
% x y sizesymbol
%
/sizesymbol {
  gsave
  translate
  1 setlinewidth
  -5 5 5 -5 line
  grestore
} def
%
% x1 y1 x2 y2 s wiresizenote
%
/wiresizenote {
    gsave
    8 rfont
    5 1 roll              % s x1 y1 x2 y2
    dup                   % s x1 y1 x2 y2 y2
    3 index               % s x1 y1 x2 y2 y2 y1
    eq 5 1 roll           % s t x1 y1 x2 y2
    3 -1 roll add 2 div   % s t x1 x2 y'
    3 1 roll add 2 div    % s t y' x'
    exch translate        % s t
    newpath -4 -4 moveto
    4 4 lineto stroke
    { 0 -7 CT } { 7 3 LJ } ifelse
    grestore
} bind def
%
% An inverter bubble
/inverter {
   0 startgate
   1 setgray
   0 0 2 0 360 arc fill
   0 setgray
   0 0 2 0 360 arc stroke
   grestore
} bind def
%
% x y r arrow
%
/arrow {
    gsave
    3 1 roll
    translate
    1 -1 scale
    90 mul rotate
    newpath
    -2 -.5 moveto 1 -.5 lineto 1 -2.5 lineto
    4 0 lineto 1 2.5 lineto 1 .5 lineto -2 .5 lineto closepath
    fill
    grestore
} def
%
% x y r tri
%
/tri {
    gsave
    3 1 roll
    translate
    90 mul rotate
    newpath
    -5 0 moveto -1 -2.5 lineto -1 -.5 lineto 1 -.5 lineto
    1 -2.5 lineto 5 0 lineto 1 2.5 lineto 1 .5 lineto
    -1 .5 lineto -1 2.5 lineto closepath
    fill
    grestore
} def
%
% Arrow head for ends of wires
/arrowhead {
	startgate
	0.5 setlinewidth
	newpath
	-2 -1.5 moveto
	0 0 lineto
	-2 1.5 lineto
	stroke
	grestore
} bind def
%
% w h pbox
%
/pbox {
  newpath
  2 copy 2 copy
  0 0 moveto
  exch pop 0 exch lineto
  lineto
  pop 0 lineto
  closepath
} bind def
%
% x y w h box
%
/box {
  gsave
  1 add exch 1 add exch
  4 2 roll
  translate
  -.5 -.5 translate
  pbox stroke
  grestore
} bind def

%
% x y w h bold_box
%
/bold_box {
  gsave
  2 setlinewidth
  4 2 roll
  translate
  pbox stroke
  grestore
} def

%
% x1 y2 x2 y2 line
%
/line {
  moveto lineto stroke
} def

%
% x1 y2 x2 y2 gline
%
/gline {
  gsave
  0.5 setgray
  moveto lineto stroke
  grestore
} def

%
%
/ds {
	gsave
	translate
	newpath
	0 0 moveto
	3 0 lineto
	3 11 lineto
	0 11 lineto
	closepath stroke
	0 2 moveto 3 2 lineto stroke
	0 9 moveto 3 9 lineto stroke
	0 5 moveto
	3 5 lineto
	3 6 lineto
	0 6 lineto
	closepath fill
	grestore
} def
%
% x y () hsize
%
/hsize {
	gsave
	3 1 roll
	translate
	6 rfont
	0 -5 CT
	newpath
	0.5 setlinewidth
	3 -3 moveto -3 3 lineto stroke
	grestore
} def
%
% x y () hsize
%
/vsize {
	gsave
	3 1 roll
	translate
	6 rfont 
	5 2 LJ
	newpath
	0.5 setlinewidth
	3 -3 moveto -3 3 lineto stroke
	grestore
} def
%
% a b max
%
/max {
	2 copy
	le {exch pop} {pop} ifelse
} def
%
%
/longestwidth {
	exch stringwidth pop exch
	1 sub
	{exch stringwidth pop max} repeat
} def
%
%
% Gate Logo (by Miles Bader)
%
/size 10 def

/2dup {
	1 index 1 index
} def

/gatelogo {
  gsave
  translate
  0 12 translate		% Make space for label

  .45 .45 scale
  5 size mul neg 0 translate

  0 0 post
  8 size mul 0 post

  1 setlinewidth
  0 setgray

  size 2 mul			% 2s
  dup 4 mul			% 2s 8s
  2dup				% 2s 8s 2s 8s  
  size				% 2s 8s 2s 8s s
  3 1 roll			% 2s 8s s 2s 8s
  {
    newpath
    dup 2 index exch moveto
    2 index exch lineto
    stroke
  } for

  pop pop

  size dup 2.5 mul exch 8.5 mul spikedraw
  size dup 3.5 mul exch 9.25 mul spikedraw
  size dup 4.5 mul exch 9.5 mul spikedraw

  newpath
  size dup 5 mul exch 9 mul 1 index exch moveto
  0 lineto
  1 setlinewidth
  1 setgray
  stroke

  size dup 5.5 mul exch 9.5 mul spikedraw
  size dup 6.5 mul exch 9.25 mul spikedraw
  size dup 7.5 mul exch 8.5 mul spikedraw

  1.5 size mul ifont
  GateVersion 5 size mul -18 showCentered

  grestore
} def

/spikedraw {
	0 setgray

	newpath				% x y
	2dup moveto			% x y
	2dup size 2 div 250 290 arc	% x y
	closepath
	fill

	newpath
	2dup size 2 div sub moveto	% x y
	pop size 2 div lineto		% x y
	1 setlinewidth
	stroke
} def

%
% Centered show text.
% (TEXT) x y showCentered
/showCentered {
	gsave
	3 -1 roll
	dup
	stringwidth
	pop 2 div neg 0 translate
	3 1 roll
	moveto
	show
	grestore
} def

/post {
  gsave
  translate

  newpath
  0 0 moveto
  size 2 mul 0 lineto
  size dup 3.5 mul 4.12 size mul 75.96 104.04 arc
  closepath
  gsave 0 setgray 2 setlinewidth stroke grestore
%	1 setgray fill

  size .66 mul size moveto
  0 6 size mul rlineto
  size 1.33 mul size moveto
  0 6 size mul rlineto
  0 setgray 0.5 setlinewidth stroke

  newpath
  size .8	mul					% .8s
  4.12 3.5 add					% .8s 7.72
  size mul 1 index add				% .8s 8.52s
  size exch					% .8s s 8.52s
  3 -1 roll 0 360 arc
  gsave 0 setgray 2 setlinewidth stroke grestore
  .95 setgray fill

  grestore
} def


%
%  Draw the page box
%
% t/f pagebox
%
/pagebox {
  gsave

  %
  % Draw main frame
  %
  1 setlinewidth
  {
    newpath
    LMargin BMargin moveto
    PageWidth RMargin sub	BMargin	lineto
    PageWidth RMargin sub PageHeight TMargin sub lineto
    LMargin PageHeight TMargin sub lineto
    closepath
    stroke
  } {
    newpath
    LMargin BMargin moveto
    PageWidth RMargin sub BMargin lineto
    PageWidth RMargin sub BMargin LBlock add lineto
    LMargin BMargin LBlock add lineto
    closepath
    stroke
  } ifelse

  10 dict begin
    /X1 LMargin def
    /X2 PageWidth RMargin sub def
    /X3 PageWidth RMargin sub LogoWidth sub def
    /XM X1 X3 add 2 div def
    /Y0 BMargin LBlock add def
    /Y1 BMargin LBlock 2 mul 3 div add def
    /Y2 BMargin LBlock 3 div add def
    /Y3 BMargin def


    X1 Y0 moveto  X2 Y0 lineto stroke
    X1 Y1 moveto  X3 Y1 lineto stroke
    X1 Y2 moveto  X3 Y2 lineto stroke

    /x1delta 10 def
    /x2delta 0 def
    /ydelta 5 def

    12 bfont 
    X1 x1delta add Y1 ydelta add moveto (Designer:) show
    X1 x1delta add Y2 ydelta add moveto (Site:) show
    X1 x1delta add Y3 ydelta add moveto (Date:) show

    XM x2delta add Y1 ydelta add moveto (Document:) show
    XM x2delta add Y2 ydelta add moveto (Page:) show
    isTrace {
      XM x2delta add Y3 ydelta add moveto (Interval:) show
    } {
      XM x2delta add Y3 ydelta add moveto (Module:) show
    } ifelse

    /x1delta 15 (Designer:) stringwidth pop add def
    /x2delta 5 (Document:) stringwidth pop add def

    12 rfont
    X1 x1delta add Y1 ydelta add moveto Author show
    X1 x1delta add Y2 ydelta add moveto Site show
    X1 x1delta add Y3 ydelta add moveto Date show

    XM x2delta add Y1 ydelta add moveto CircuitName show
    XM x2delta add Y2 ydelta add moveto PageNumber show
    XM x2delta add Y3 ydelta add moveto ModuleNames show
  end

  %
  % Draw logo
  %
  PageWidth RMargin sub LogoWidth sub BMargin moveto
  0 LBlock rlineto stroke
  PageWidth RMargin sub LogoWidth 2 div sub BMargin gatelogo

  grestore
} bind def

%
% () x y pshow
%
/pshow {
	gsave
	translate
	1 -1 scale
	(_) anchorsearch {
	    newpath 0 0 moveto
	    pop dup true charpath pathbbox
	    0.5 setlinewidth
	    newpath dup 3 1 roll 2 add moveto exch pop 2 add lineto stroke
	} if
	0 0 moveto show
	grestore
} def
%
% () hj vj x y pjshow 
%
/pjshow {
  gsave
  translate
  3 dict begin
    2 index stringwidth pop /W exch def
    /S currentfont /ScaleMatrix get 0 get def
    currentfont /FontBBox get cvx exec
    /A exch S mul 1000 div def pop /D exch S mul 1000 div def pop

    dup /C eq {
      0 A D add 2 div translate
    } if
    dup /T eq {
      0 A translate
    } if
    dup /B eq {
      0 D translate
    } if
    pop

    dup /C eq {
      W 2 div neg 0 translate
    } if
    dup /R eq {
      W neg 0 translate
    } if
    pop
  end
  0 0 pshow
  grestore
} def

%
% () x y pshow
%
/prshow {
	gsave
	translate
	(_) anchorsearch {
	    newpath 0 0 moveto
	    pop dup true charpath pathbbox
	    0.5 setlinewidth
	    newpath dup 3 1 roll 2 add moveto exch pop 2 add lineto stroke
	} if
	0 0 moveto show
	grestore
} def

%
% Show a value in a trace.  Do not display if width is greater than wmax
%
% () x y wmax trshow
%
/trshow {
  gsave
  3 1 roll translate
  1 index stringwidth pop lt {
    pop
  } {
    0 0 prshow
  } ifelse
  grestore
} def


%
% Centered show text.
% (TEXT) x y CT
/CT {
	gsave
	3 -1 roll
	dup
	stringwidth
	pop 2 div neg 0 translate
	3 1 roll
	pshow
	grestore
} bind def
%
% Centered show text (reversed).
% (TEXT) x y rCT
/rCT {
  gsave
  translate      
  1 -1 scale
  dup
  stringwidth
  pop 2 div neg 0 translate
  0 0 pshow
  grestore
} bind def
%
% Left Justified show text
% (TEXT) x y LJ
/LJ {
	pshow
} bind def
%
% Right Justified show text.
% (TEXT) x y RJ
/RJ {
	gsave
	3 -1 roll
	dup
	stringwidth
	pop neg 0 translate
	3 1 roll
	pshow
	grestore
} bind def

%
% begin a trace
%
% x y w h BT
%
/BT {
  gsave
  newpath
  4 2 roll moveto
  dup 0 exch rlineto
  exch 0 rlineto
  neg 0 exch rlineto
  closepath
  clip
  newpath
} def

%
% end a trace
%
/ET {
  grestore
} def

%
% Begin page
%
% (n of n) (mod) BP
%
/BP {
  /ModuleNames exch def
  gsave
  IsLandscape { makeLandscape } if

  isepsf {
    pop
  } {
    /PageNumber exch def
    isTrace not pagebox
    LMargin BMargin LBlock add translate
  } ifelse
} def
%

% Begin a quandrent page
%
% r c nr nc (n of n) (mod) BP_P
%
/BP_P {
  BP
  PageWidth LMargin sub RMargin sub LogoWidth sub PBsize sub LBlock neg PartBox
} def

% Begin a scope trace page
%
% (n of n) (n-m) BP_T
/BP_T {
  /isTrace true def
  BP
} def

%
% End page
%
% EP
%
/EP { grestore showpage } def
%
% Begin module
%
% () x y w h BM
%
/BM {
  gsave
  4 2 roll translate

  newpath
  0 0 moveto
  exch dup 0 lineto
  exch 2 copy lineto
  exch pop 0 exch lineto
  closepath
  clip
  newpath

  10 rfont
  5 5 moveto show

} def

%
% x y w h
%
/corners {
  gsave
  4 2 roll	% w h x y

  newpath
  2 copy 5 add moveto 0 -5 rlineto 5 0 rlineto stroke
  2 copy 4 index add 5 sub moveto 0 5 rlineto 5 0 rlineto stroke
  2 copy 4 index add exch 5 index add exch 5 sub moveto 0 5 rlineto -5 0 rlineto stroke
  exch 3 index add 5 sub exch moveto 5 0 rlineto 0 5 rlineto stroke  
  pop pop

  grestore
} def

%
% Begin module with corners
%
% () x y w h BM
%
/BM_C {
  4 copy corners
  BM
} def

%
% x y w h
%
/PBox {
  newpath
  4 2 roll moveto
  1 index 0 rlineto
  neg 0 exch rlineto
  neg 0 rlineto
  closepath
} def

%
% r c nr nc x y
%
/PartBox {
  gsave
  translate
  6 dict begin
    /nc exch def
    /nr exch def
    /c exch def
    /r exch def
    /boxW PBsize nc div def 
    /boxH PBsize nr div def 

    0 1 nc 1 sub {
      0 1 nr 1 sub {
        2 copy r eq exch c eq and {
	   2 copy
	   boxH mul PBsize exch sub exch boxW mul exch  
           boxW boxH PBox gsave fill grestore stroke
	} {
           2 copy
	   boxH mul PBsize exch sub exch boxW mul exch  
           boxW boxH PBox gsave 1 setgray fill grestore stroke
	} ifelse
        pop
      } for
      pop
    } for
  end
  grestore
} def

%
% End module
%
% EM
/EM { grestore } def

%
% makeLandscape
%
/makeLandscape {
   90 rotate
   0 PageHeight neg translate
} def
%
% x y joint_gray
%
/joint_gray {
   gsave
   translate
   0.5 setgray
   -4 -4 moveto -4 4 lineto 4 4 lineto 4 -4 lineto closepath fill
   grestore
} def
%
% () t/f x y hgnode
%
/hgnode {
  gsave
  translate
  {[3 3] 0 setdash} if
  dup 5 -5 moveto show newpath
  0 -10 moveto stringwidth pop 10 add 0 rlineto 0 20 rlineto 0 10 lineto closepath stroke
  grestore
} def
%
% An COMMENT gate
%
/pscomment {
  0 startgate
  12 cfont
  newpath 0 0 moveto
  { {} forall exch neg 0 exch rmoveto gsave show grestore } forall
  grestore
} bind def
%
% A Rshifter
/psrshift {
  180 sub neg 360 mod neg
  pslshift
} def
%
% [() ...] l x y o concat
%
/psconcat {
  dup 5 1 roll
  startgate
  dup 2 div -5 exch moveto
  5 0 rlineto
  dup neg 0 exch rlineto
  -5 0 rlineto
  stroke
  8 rfont
  exch -180 eq {
    180 rotate
    2 div neg 6 exch 12 add moveto
    {
      gsave show grestore
      0 10 rmoveto
    } forall
  } {
    2 div -6 exch 8 sub moveto
    {
      gsave dup stringwidth pop neg 0 rmoveto show grestore
      0 -10 rmoveto
    } forall
  } ifelse
  grestore
} def
%
% An OR gate
%
/psor {
  startgate
  -10 -7 moveto
  -2 7 14 -90 -30 arc
  -2 -7 14 30 90 arc
  14 theight neg 11 sub 0 14 30 -30 arcn
  closepath
  stroke
  grestore
} bind def
%
% A flip-flop
/psflipflop {
  [[0 0][0 0][0 0][0 0]] adjstartgate
  -15.5 -15.5 moveto
  -15.5 15.5 lineto
  15.5 15.5 lineto
  15.5 -15.5 lineto
  closepath stroke
  -5 -15.5 moveto
  0 -10.5 lineto
  5 -15.5 lineto
  stroke
  7 rfont
  (_C) -8 6 prshow
  (_E) 2 6 prshow
  {
    (Q) -14 2 prshow
    (_Q) -14 -8 prshow
    (D) 8 -3 prshow
  } {
    (Q) 8 2 prshow
    (_Q) 8 -8 prshow
    (D) -14 -3 prshow
  } ifelse
  grestore
} def
%
% dw phi pw x y r clockgate
%
/psclock_base {
  [[-1 0][0 0][1 -1][-3 -2]] adjstartgate
  -8 -12 moveto
  16 0 lineto
  -8 12 lineto
  closepath
  stroke
  -6 -4 moveto
  -4 -4 lineto
  -4 4 lineto
  0 4 lineto
  0 -4 lineto
  2 -4 lineto
  stroke
  grestore
} def
/psclock {
  3 copy psclock_base
  startnorotgate
  0 -20 translate
  0 0 moveto
  8 rfont
  (P = ) show
  20 string cvs show
  ( ) show
  8 syfont
  (f) show 
  8 rfont
  ( = ) show
  20 string cvs show
  ( D = ) show
  20 string cvs show
  grestore
} bind def
%
% A Arshifter
%
/psarshift {
  [[0 .5][-.5 .5][2 0.5][0 -.5]] adjstartgate
  -31 -10.5 moveto
  -37.5 -5 lineto
  -37.5 4 lineto
  -31 10.5 lineto
  31 10.5 lineto
  37.5 4 lineto
  37.5 -5 lineto
  31 -10.5 lineto
  closepath stroke
  -7 2 moveto
  3 2 lineto
  3 5 lineto
  9 0 lineto
  3 -5 lineto
  3 -2 lineto
  -7 -2 lineto
  closepath fill
  -9 2 moveto -11 2 lineto
  -11 -2 lineto -9 -2 lineto
  closepath fill
  -9 3 moveto
  -9 6 lineto
  -7 6 lineto

  -7 4 lineto
  -8 4 lineto
  -6 3 lineto
  -4 4 lineto
  -5 4 lineto

  -5 8 lineto
  -11 8 lineto
  -11 3 lineto
  closepath fill
  grestore
} def
% ...and now for something completely different...
%
% Okonomiyaki - one serving
%
%  3 tbs     Flour
%  3 tbs     Water
%  1         Egg
%  1/8 head  Cabbage (shredded)
%  1 tbs     Tororo-imo (Japanese potato) [optional]
%  1 tsp     Benishoga (Pickled ginger)
%  1 tbs     carrot (shredded)
%  1 tbs     leeks (shredded)
%  1 tbs     green pepper (shredded)
%
%  Fillings: beef, pork, vegtables
%
%  Toppings:
%            Aonori (seaweed flakes)
%            Katsuo-bushi (dried fish flakes)
%            Japanese Tonkatsu Sauce
%            Mayonaise
%
% Mix all of the basic ingedients together in a small bowl.  Place a small
% quantity of filling on an oiled hot plate or griddle and fry for a few seconds.
% Pour the okonomiyaki mixture from the bowl on top of the filling and smooth
% out into a thick pancake-like shape.  Let cook for 5-7 min.  Turn over and cook
% another 2-3 min.  Spread the tokatsu sauce and mayonaise on top of the okonomiyaki
% then sprinkle with katuo-bushi and aonori.  Cut into 1/6ths and serve.
%
% A Lshift
/pslshift {
  [[0 .5][-.5 .5][2 0.5][0 -.5]] adjstartgate
  -31 -10.5 moveto
  -37.5 -5 lineto
  -37.5 4 lineto
  -31 10.5 lineto
  31 10.5 lineto
  37.5 4 lineto
  37.5 -5 lineto
  31 -10.5 lineto
  closepath stroke
  7 2 moveto
  -3 2 lineto
  -3 5 lineto
  -9 0 lineto
  -3 -5 lineto
  -3 -2 lineto
  7 -2 lineto
  closepath fill
  grestore
} def
%
% An LED (bit)
%
/psled_bit {
  startgate
  -5 -7 moveto
  5 -7 lineto
  5 0 lineto
  0 0 5 0 180 arc
  closepath
  gsave .8 setgray fill grestore
  stroke
  grestore
} bind def
%
% Single bar graph segment
%
/psled_barseg {
  gsave
  3 -13 translate
  3 10 pbox 
  gsave .8 setgray fill grestore
  stroke
  grestore
} def
%
% An LED (bar graph)
%
/psled_bar {
  startgate
  neg 0 0 4 2 roll box
  1 1 3 -1 roll { psled_barseg 5 0 translate } for
  grestore
} bind def
%
% Single 7-segment digit
%
/psled_7segdig {
  gsave
  2 setlinewidth
  0 -27 translate
  5 0 17 0 line
  5 11 17 11 line
  5 22 17 22 line

  4 1 4 10 line
  18 1 18 10 line
  4 12 4 21 line
  18 12 18 21 line
  grestore
} def
%
% An LED (7 segment)
%
/psled_7seg {
  startgate
  neg 0 0 4 2 roll box
  1 1 3 -1 roll { psled_7segdig 20 0 translate } for
  grestore
} bind def
%
% An PMOS gate
%
/pspmos {
  [[0 1][1 -1][-1 0][1 1]] adjstartgate
  -8 9 moveto
  -8 -8 lineto stroke
  6.5 8.5 moveto
  -4 8.5  lineto
  -4 -7.5 lineto
  6.5 -7.5 lineto stroke
  closepath fill
  -3.5 8.5 moveto
  -0.5 11 lineto
  -0.5 6 lineto
  closepath fill
  grestore
} bind def
%
% x y r psmult
%
/psmult {
  startgate
  -30 15.5 moveto
  -5 15.5 lineto
  0 10 lineto
  5 15.5 lineto
  30 15.5 lineto
  16 -12.5 lineto
  -16 -12.5 lineto
  closepath stroke
  -3 -3 moveto 3 3 lineto stroke
  -3 3 moveto 3 -3 lineto stroke
  grestore
} def
%
% A symbol block gate
%
/pssymblock {
  startgate
  1 -1 scale
  {} forall translate 1 exch matrix exch image
  grestore
} bind def
%
% x y r mux
%
/mux {
    dup /mrot exch def
    startgate
    8 rfont
    -29.5 15.5 moveto
    29.5 15.5 lineto
    16.5 -12.5 lineto
    -16.5 -12.5 lineto
    closepath stroke
    dup					% n n
    1 add 58 exch div			% n d1
    2 copy mul				% n d1 dn
    mrot -90 eq mrot -180 eq or {
      3 -1 roll 1 sub 50 string cvs exch (0) exch	% d1 (n) (0) dn
      -29 add 7 rCT				% d1
      exch -29 add 7 rCT
    } {
      3 -1 roll 1 sub 50 string cvs exch	% d1 (n) dn
      -29 add 7 rCT				% d1
      (0) exch -29 add 7 rCT
    } ifelse
    grestore
} def
%
% x y r vdd
%
/psvdd {
  startgate
  -19 0 moveto -3 0 lineto stroke
  10 rfont
  -1 -4 moveto (V) show
  8 rfont
  0 -3 rmoveto (dd) show
  grestore
} def
%
% An NMOS gate
%
/psnmos {
  [[0 0][0 -1][-1 1][0 -1]] adjstartgate
  -8 8 moveto
  -8 -9 lineto stroke
  6.5 7.5 moveto
  -4 7.5  lineto
  -4 -8.5 lineto
  6.5 -8.5 lineto stroke
  6 -8.5 moveto
  2 -11 lineto
  2 -6 lineto
  closepath fill
  grestore
} bind def
%
% A Register
/register {
  [[0 0][-1 1][2 1][0 -1]] adjstartgate
  -36.5 -10.5 moveto
  -36.5 9.5 lineto
  38.5 9.5 lineto
  38.5 -10.5 lineto
  closepath stroke
  -36.5 -7 moveto
  -30 0 lineto
  -36.5 7 lineto stroke
  7 rfont
  (_CLR) dup stringwidth pop neg 36 add 0 prshow
  (_EN) dup stringwidth pop neg 36 add -9 prshow
  grestore
} def
%
% x y r adder
%
/psadder {
  startgate
  -30 15.5 moveto
  -5 15.5 lineto
  0 10 lineto
  5 15.5 lineto
  30 15.5 lineto
  16 -12.5 lineto
  -16 -12.5 lineto
  closepath stroke
  -3 0 moveto 3 0 lineto stroke
  0 3 moveto 0 -3 lineto stroke
  19 2 2 0 360 arc closepath fill
  grestore
} def
%
% x y r ram
%
/psram {
  startgate
  -17.5 23.5 moveto
  16.5 23.5 lineto
  16.5 -25.5 lineto
  -17.5 -25.5 lineto
  closepath stroke
  8 rfont
  -15 -2 moveto (A) show
  5 -2 moveto (D) show
  6 rfont
  (_cs) -11 -23 prshow
  (_oe) 4 -23 prshow
  (_we) -4 16 prshow
  grestore
} def
%
% A Roller
/psroll {
  [[0 .5][-.5 .5][2 0.5][0 -.5]] adjstartgate
  -31 -10.5 moveto
  -37.5 -5 lineto
  -37.5 4 lineto
  -31 10.5 lineto
  31 10.5 lineto
  37.5 4 lineto
  37.5 -5 lineto
  31 -10.5 lineto
  closepath stroke
  2 setlinewidth
  newpath
  0 0 6 20 340 arc stroke
  30 rotate
  4 0 translate
  -70 rotate
  -1.5 0 moveto 1.5 0 lineto
  0 3 lineto closepath stroke
  grestore
} def
%
% A Buffer
/psbuf {
  startgate
  -5.5 -7.5 moveto
  9.5 0 lineto
  -5.5 7.5 lineto
  closepath
  stroke
  grestore
} bind def
%
% x y r psrom
%
/psrom {
  startgate
  -17.5 23.5 moveto
  16.5 23.5 lineto
  16.5 -25.5 lineto
  -17.5 -25.5 lineto
  closepath stroke
  8 rfont
  -15 -2 moveto (A) show
  5 -2 moveto (D) show
  6 rfont
  (_oe) -4 -23 prshow
  grestore
} def
/triiogate {
  startgate
  0 -3 moveto
  6 0 lineto
  0 3 lineto
  -6 0 lineto
  closepath
  stroke
  grestore
} bind def
%
% A Switch
/switchgate {
  startnorotgate
  % Outer Box
  4 setlinewidth
  -18 -12 moveto
  15 -12 lineto
  15 12 lineto
  1 setlinewidth
  -18 12 lineto
  closepath
  stroke
  gsave      % Inner Box
  -5 -9 moveto
  -5 10 lineto
  -16 10 lineto
  -16 -9 lineto
  closepath
  stroke
  0.8 setgray
  -5 -9 moveto
  -5 10 lineto
  -16 10 lineto
  -16 -9 lineto
  closepath
  fill
  grestore
  -8 0 moveto    % Knives
  -8 7 lineto
  -13 7 lineto
  -13 0 lineto
  stroke
  -10.5 7  moveto    % Handle
  -10.5 7.5 lineto
  stroke
  -10.5 8 1 0 360 arc
  closepath
  fill
  -7 -1 moveto    % Hinges
  -7 1 lineto
  -9 -1 moveto
  -9 1 lineto
  -12 -1 moveto
  -12 1 lineto
  -14 -1 moveto
  -14 1 lineto
  stroke
  -7 5 1 0 360 arc  % Clips
  closepath fill
  newpath
  -9 5 1 0 360 arc
  closepath fill
  newpath
  -12 5 1 0 360 arc
  closepath fill
  newpath
  -14 5 1 0 360 arc
  closepath fill
  newpath
  -7 -5 1 0 360 arc
  closepath fill
  newpath
  -9 -5 1 0 360 arc
  closepath fill
  newpath
  -12 -5 1 0 360 arc
  closepath fill
  newpath
  -14 -5 1 0 360 arc
  closepath fill
  8 rfont
  -3 4 moveto
  (on) show
  -3 -7 moveto
  (off) show
  grestore
} bind def
%
% An frame gate
%
/psframe {
  gsave
  translate
  pbox
  [3 3] 0 setdash
  stroke
  [] 0 setdash
  1 setgray 2 setlinewidth
  10 0 moveto 10 add 0 rlineto stroke
  0 setgray
  grestore
} bind def
%
% A Solder Joint
%
/joint {
  startgate
  0 0 2 0 360 arc
  closepath
  fill
  grestore
} bind def
%
% x y r demux
%
/demux {
    startgate
    8 rfont
    (demux) 0 5 rCT
    -16.5 12.5 moveto
    16.5 12.5 lineto
    29.5 -15.5 lineto
    -29.5 -15.5 lineto
    closepath stroke
    dup					% n n
    1 add 58 exch div			% n d1
    2 copy mul				% n d1 dn
    3 -1 roll 1 sub 50 string cvs exch	% d1 (n) dn
    -29 add -12 rCT				% d1
    (0) exch -29 add -12 rCT
    grestore
} def
%
% (v) x y r dip
%
/psdip {
  dup 4 1 roll
  startnorotgate
  3.5 0.5 translate
  -42 -10 moveto
  34 -10 lineto
  34 10 lineto
  -42 10 lineto
  closepath stroke
  8 rfont
  1 -1 scale
  -180 eq { 38 5 LJ } { -4 -12 CT } ifelse
  1 -1 scale
  5 rfont
  -38 3 moveto (ON) show
  -38 -6 moveto (OFF) show
  -24 7 25 {-5 ds} for
  grestore
} def
%
% An input pin
%
/psin {
  startgate
  -6 -3 moveto
  0 0 lineto
  -6 3 lineto
  stroke
  grestore
} bind def
%
% 'OR' part of XOR gate
%
/base_xor {
  startgate
  -10 -7 moveto
  -5 7 14 -90 -30 arc
  -5 -7 14 30 90 arc
  14 theight neg 11 sub 0 14 30 -30 arcn
  closepath
  stroke
  grestore
} bind def
%
% An XOR Gate
%
/psxor {
  startgate
  3 0 0 base_xor
  14 theight neg 11 sub 0 14 30 -30 arcn
  stroke
  grestore
} bind def
%
% A Splice
/pstap {
  [[-2 0][0 -1][-1 0][0 -2]] adjstartgate
  -4 -3 moveto
  -2 -3 lineto
  2 0 lineto
  -2 3 lineto
  -4 3 lineto
  8 rfont
  4 4 moveto show
  closepath fill
  grestore
} def
%
% An output pin
%
/psout {
  startgate
  -6 -3 moveto
  3 0 lineto
  -6 3 lineto
  stroke
  grestore
} bind def
%
% A JK flip-flop
/psjkff {
  [[0 0][0 0][0 0][0 0]] adjstartgate
  -15.5 -15.5 moveto
  -15.5 15.5 lineto
  15.5 15.5 lineto
  15.5 -15.5 lineto
  closepath stroke
  -5 -15.5 moveto
  0 -10.5 lineto
  5 -15.5 lineto
  stroke
  7 rfont
  (_C) -8 6 prshow
  (_P) 2 6 prshow
  {
    (Q) -14 2 prshow
    (_Q) -14 -8 prshow
    (J) 8 2 prshow
    (K) 8 -8 prshow
  } {
    (Q) 8 2 prshow
    (_Q) 8 -8 prshow
    (J) -14 2 prshow
    (K) -14 -8 prshow
  } ifelse
  grestore
} def
%
% x y r decoder
%
/decoder {
    startgate
    8 rfont
    (dec) 0 5 rCT
    -16.5 12.5 moveto
    16.5 12.5 lineto
    29.5 -15.5 lineto
    -29.5 -15.5 lineto
    closepath stroke
    dup					% n n
    1 add 58 exch div			% n d1
    2 copy mul				% n d1 dn
    3 -1 roll 1 sub 50 string cvs exch	% d1 (n) dn
    -29 add -12 rCT				% d1
    (0) exch -29 add -12 rCT
    grestore
} def
%
% x y r ground
%
/psground {
  startgate
  -4 6 moveto 4 6 lineto stroke
  -3 4 moveto 3 4 lineto stroke
  -2 2 moveto 2 2 lineto stroke
  -1 0 moveto 1 0 lineto stroke
  grestore
} def
%
% A Script
/script {
  [[0 0][0 0][0 0][0 0]] adjstartgate
  -15.5 -15.5 moveto
  -15.5 15.5 lineto
  15.5 15.5 lineto
  15.5 -15.5 lineto
  closepath stroke
  grestore
} def
%
% x y r psdiv
%
/psdiv {
  startgate
  -30 15.5 moveto
  -5 15.5 lineto
  0 10 lineto
  5 15.5 lineto
  30 15.5 lineto
  16 -12.5 lineto
  -16 -12.5 lineto
  closepath stroke
  -3 0 moveto 3 0 lineto stroke
  0 3 1 0 360 arc closepath fill
  0 -3 1 0 360 arc closepath fill
  grestore
} def
%
% An AND gate
%
/psand {
  startgate
  2.5 7 moveto
  -10.5 7 lineto
  -10.5 -7 lineto
  2.5 -7 lineto
  2.5 0 7 -90 90 arc
  closepath
  stroke
  grestore
} bind def

/Author (Vinicius Massuchetto,,,) def
/Site (GRR20063784 - CI068A) def
/Date (December 2, 2009) def
/CircuitName (Multiplicador Sequencial e Combinacional) def
/isepsf false def
/NumPages ( of 1) def
/GateVersion (TKGate 2.0-b10) def
/IsLandscape true def
/PageWidth 841.88 def
/PageHeight 595.27 def
/LMargin 25 def
/RMargin 25 def
/TMargin 25 def
/BMargin 25 def
/LBlock 60 def
/Courier-Latin1 /Courier findfont defLatin1
/Courier-Bold-Latin1 /Courier-Bold findfont defLatin1
/Courier-Italic-Latin1 /Courier-Italic findfont defLatin1
/Courier-BoldItalic-Latin1 /Courier-BoldItalic findfont defLatin1
/Helvetica-Latin1 /Helvetica findfont defLatin1
/Helvetica-Bold-Latin1 /Helvetica-Bold findfont defLatin1
/Helvetica-Oblique-Latin1 /Helvetica-Oblique findfont defLatin1
/Helvetica-BoldOblique-Latin1 /Helvetica-BoldOblique findfont defLatin1
/Times-Roman-Latin1 /Times-Roman findfont defLatin1
/Times-Bold-Latin1 /Times-Bold findfont defLatin1
/Times-Italic-Latin1 /Times-Italic findfont defLatin1
/Times-BoldItalic-Latin1 /Times-BoldItalic findfont defLatin1
/Symbol-Latin1 /Symbol findfont defLatin1
/Symbol-Latin1 /Symbol findfont defLatin1
/Symbol-Latin1 /Symbol findfont defLatin1
/Symbol-Latin1 /Symbol findfont defLatin1
/cfont { /Courier-Latin1 findfont exch scalefont setfont } bind def
/rfont { /Helvetica-Latin1 findfont exch scalefont setfont } bind def
/bfont { /Helvetica-Bold-Latin1 findfont exch scalefont setfont } bind def
/ifont { /Helvetica-Oblique-Latin1 findfont exch scalefont setfont } bind def
/bifont { /Helvetica-BoldOblique-Latin1 findfont exch scalefont setfont } bind def
/syfont { /Symbol findfont exch scalefont setfont } bind def
%%EndProlog
%%BeginSetup
%%IncludeResource: font Hevetica
%%IncludeResource: font Hevetica-Oblique
%%IncludeResource: font Hevetica-Bold
%%IncludeResource: font Hevetica-BoldOblique
%%IncludeResource: font Symbol
%%BeginFeature: *DuplexMode false
statusdict /setduplexmode known {
  statusdict begin
    false setduplexmode
  end
} if
%%EndFeature
%%EndSetup


%%Page: 1 1
(1 of 1) (main) BP
() 10 10 771 465 BM
gsave
0 465 translate
0.581269 0.581269 scale
1 -1 scale
491.203728 166.486684 translate
newpath
201 -92 moveto
201 8 lineto
201 8 lineto
201 23 lineto
stroke
2 setlinewidth
newpath
201 44 moveto
201 62 lineto
201 62 lineto
201 61 inverter
201 59 lineto
stroke
newpath
203 84 moveto
203 376 lineto
412 376 lineto
412 574 lineto
778 574 lineto
778 564 lineto
stroke
198 230 sizesymbol
(24) 12 206 230 wirelabel
newpath
198 84 moveto
198 376 lineto
-77 376 lineto
stroke
1 setlinewidth
newpath
-331 66 moveto
-331 -38 lineto
38 -38 lineto
stroke
newpath
-329 68 moveto
-311 68 lineto
stroke
newpath
-247 68 moveto
-262 68 lineto
stroke
newpath
-245 66 moveto
-245 -28 lineto
38 -28 lineto
stroke
newpath
-114 66 moveto
-91 66 lineto
stroke
newpath
-116 64 moveto
-116 -18 lineto
38 -18 lineto
stroke
2 setlinewidth
newpath
223 -17 moveto
210 -17 lineto
210 -17 lineto
147 -17 lineto
stroke
newpath
225 -19 moveto
225 -46 lineto
263 -46 lineto
stroke
newpath
145 -19 moveto
145 -49 lineto
145 -49 lineto
145 -87 lineto
stroke
newpath
145 -15 moveto
145 161 lineto
-184 161 lineto
stroke
newpath
-81 376 moveto
-206 376 lineto
-206 349 lineto
-196 349 lineto
stroke
newpath
-79 374 moveto
-79 343 lineto
stroke
1 setlinewidth
newpath
-237 386 moveto
-379 386 lineto
-379 279 lineto
stroke
newpath
-379 275 moveto
-379 205 lineto
-379 205 lineto
-379 150 lineto
stroke
newpath
-377 277 moveto
-362 277 lineto
-362 277 lineto
-347 277 lineto
stroke
newpath
-381 148 moveto
-463 148 lineto
stroke
newpath
-377 148 moveto
-332 148 lineto
stroke
newpath
-182 357 moveto
-182 386 lineto
-233 386 lineto
stroke
newpath
-235 384 moveto
-235 293 lineto
-182 293 lineto
-182 309 lineto
stroke
-160 333 sizesymbol
(24) 65 -160 330 wirelabel
2 setlinewidth
newpath
-167 333 moveto
-154 333 lineto
-154 307 lineto
-79 307 lineto
-79 322 lineto
stroke
-318 277 sizesymbol
(12) 65 -318 274 wirelabel
newpath
-341 277 moveto
-295 277 lineto
-295 291 lineto
stroke
-290 307 sizesymbol
(24) 12 -282 307 wirelabel
newpath
-290 297 moveto
-290 317 lineto
-196 317 lineto
stroke
-285 280 sizesymbol
(12) 12 -277 280 wirelabel
newpath
-285 270 moveto
-285 291 lineto
stroke
-292 212 sizesymbol
(12) 12 -284 212 wirelabel
newpath
-292 219 moveto
-292 205 lineto
-292 205 lineto
-292 206 lineto
stroke
1 setlinewidth
newpath
-287 225 moveto
-287 227 lineto
-287 227 lineto
-287 249 lineto
stroke
newpath
-297 240 moveto
-297 225 lineto
stroke
2 setlinewidth
newpath
-188 161 moveto
-292 161 lineto
-292 185 lineto
stroke
newpath
-186 163 moveto
-186 186 lineto
stroke
newpath
-235 175 moveto
-340 175 lineto
-340 195 lineto
-329 195 lineto
stroke
newpath
-233 177 moveto
-233 196 lineto
-223 196 lineto
stroke
newpath
84 61 moveto
118 61 lineto
118 175 lineto
-231 175 lineto
stroke
newpath
82 59 moveto
82 52 inverter
82 54 lineto
stroke
-186 221 sizesymbol
(12) 12 -178 221 wirelabel
newpath
-186 207 moveto
-186 236 lineto
-282 236 lineto
-282 249 lineto
stroke
1 setlinewidth
newpath
66 14 moveto
75 14 lineto
75 -38 lineto
stroke
newpath
-116 332 moveto
-139 332 lineto
-139 404 lineto
-365 404 lineto
-365 112 lineto
stroke
newpath
64 16 moveto
64 327 lineto
-40 327 lineto
stroke
newpath
82 97 moveto
82 337 lineto
-40 337 lineto
stroke
newpath
80 95 moveto
42 95 lineto
42 21 lineto
-19 21 lineto
stroke
newpath
-309 66 moveto
-309 36 lineto
-251 36 lineto
-234 36 lineto
-234 63 lineto
-218 63 lineto
stroke
newpath
-307 68 moveto
-294 68 lineto
stroke
newpath
-309 70 moveto
-309 78 lineto
-294 78 lineto
stroke
newpath
-180 66 moveto
-184 66 lineto
-184 66 lineto
-197 66 lineto
stroke
newpath
-218 68 moveto
-243 68 lineto
stroke
newpath
-367 110 moveto
-409 110 lineto
-409 110 lineto
-448 110 lineto
stroke
newpath
-363 110 moveto
-323 110 lineto
-323 110 lineto
-280 110 lineto
stroke
newpath
-276 110 moveto
-236 110 lineto
-236 110 lineto
-149 110 lineto
stroke
newpath
-145 110 moveto
-26 110 lineto
-26 85 lineto
stroke
newpath
-70 64 moveto
-61 64 lineto
-61 64 lineto
-59 64 lineto
stroke
newpath
-91 61 moveto
-108 61 lineto
-108 38 lineto
-178 38 lineto
-178 64 lineto
stroke
newpath
-328 148 moveto
-247 148 lineto
stroke
newpath
-243 148 moveto
-204 148 lineto
-204 148 lineto
-118 148 lineto
stroke
newpath
-114 148 moveto
5 148 lineto
5 74 lineto
-10 74 lineto
stroke
newpath
-23 21 moveto
-98 21 lineto
-98 21 lineto
-140 21 lineto
stroke
newpath
-144 21 moveto
-231 21 lineto
-231 21 lineto
-271 21 lineto
stroke
newpath
-275 21 moveto
-360 21 lineto
-360 55 inverter
-360 53 lineto
stroke
newpath
-273 23 moveto
-273 38 lineto
-273 38 lineto
-273 55 inverter
-273 53 lineto
stroke
2 setlinewidth
newpath
79 29 moveto
79 -23 lineto
44 -23 lineto
stroke
newpath
85 29 moveto
85 -4 lineto
85 -4 lineto
85 -38 lineto
stroke
1 setlinewidth
newpath
82 88 moveto
82 93 lineto
stroke
82 65 sizesymbol
(4) 12 90 65 wirelabel
2 setlinewidth
newpath
82 67 moveto
82 63 lineto
stroke
1 setlinewidth
newpath
-31 16 moveto
-31 53 lineto
stroke
newpath
-29 14 moveto
62 14 lineto
stroke
newpath
-55 64 moveto
-42 64 lineto
stroke
newpath
-57 66 moveto
-57 74 lineto
-42 74 lineto
stroke
newpath
-176 66 moveto
-163 66 lineto
stroke
newpath
-178 68 moveto
-178 76 lineto
-163 76 lineto
stroke
newpath
-370 49 moveto
-370 57 lineto
stroke
newpath
-372 47 moveto
-396 47 lineto
-396 66 lineto
stroke
newpath
-394 68 moveto
-381 68 lineto
stroke
newpath
-396 70 moveto
-396 78 lineto
-381 78 lineto
stroke
newpath
-281 14 moveto
-241 14 lineto
-241 14 lineto
-154 14 lineto
stroke
newpath
-150 14 moveto
-108 14 lineto
-108 14 lineto
-33 14 lineto
stroke
80 -78 sizesymbol
(2) 12 88 -78 wirelabel
2 setlinewidth
newpath
80 -80 moveto
80 -76 lineto
80 -76 lineto
80 -44 lineto
stroke
1 setlinewidth
newpath
-21 23 moveto
-21 51 inverter
-21 49 lineto
stroke
newpath
-10 64 moveto
5 64 lineto
5 -8 lineto
38 -8 lineto
stroke
newpath
-147 108 moveto
-147 87 lineto
stroke
newpath
-142 23 moveto
-142 38 lineto
-142 38 lineto
-142 53 inverter
-142 51 lineto
stroke
newpath
-152 16 moveto
-152 34 lineto
-152 34 lineto
-152 55 lineto
stroke
newpath
-116 146 moveto
-116 76 lineto
-131 76 lineto
stroke
newpath
-131 66 moveto
-118 66 lineto
stroke
newpath
-278 108 moveto
-278 97 lineto
-278 97 lineto
-278 89 lineto
stroke
newpath
-283 57 moveto
-283 28 lineto
-283 28 lineto
-283 16 lineto
stroke
newpath
-245 146 moveto
-245 78 lineto
-262 78 lineto
stroke
newpath
-365 108 moveto
-365 97 lineto
-365 97 lineto
-365 89 lineto
stroke
newpath
-285 14 moveto
-370 14 lineto
-370 45 lineto
stroke
newpath
-330 146 moveto
-330 78 lineto
-349 78 lineto
stroke
newpath
-349 68 moveto
-333 68 lineto
stroke
newpath
620 97 moveto
620 267 lineto
693 267 lineto
stroke
newpath
544 97 moveto
544 354 lineto
582 354 lineto
stroke
newpath
464 370 moveto
447 370 lineto
447 351 lineto
478 351 lineto
478 339 lineto
stroke
newpath
803 558 moveto
803 173 lineto
493 173 lineto
stroke
newpath
707 449 moveto
707 473 lineto
stroke
newpath
773 558 moveto
773 354 lineto
722 354 lineto
stroke
newpath
546 19 moveto
546 76 lineto
stroke
newpath
411 19 moveto
411 76 lineto
stroke
newpath
354 19 moveto
354 29 lineto
354 29 lineto
354 76 lineto
stroke
newpath
352 17 moveto
299 17 lineto
299 17 lineto
269 17 lineto
stroke
newpath
409 17 moveto
376 17 lineto
376 17 lineto
356 17 lineto
stroke
newpath
544 17 moveto
431 17 lineto
431 17 lineto
413 17 lineto
stroke
newpath
661 76 moveto
661 29 lineto
661 29 lineto
661 17 lineto
582 17 lineto
582 17 lineto
548 17 lineto
stroke
newpath
707 401 moveto
707 378 lineto
stroke
newpath
611 441 moveto
685 441 lineto
685 441 lineto
693 441 lineto
stroke
newpath
565 29 moveto
565 76 lineto
stroke
newpath
430 29 moveto
430 39 lineto
430 39 lineto
430 76 lineto
stroke
newpath
392 29 moveto
392 76 lineto
stroke
newpath
390 27 moveto
311 27 lineto
311 27 lineto
269 27 lineto
stroke
newpath
428 27 moveto
406 27 lineto
406 27 lineto
394 27 lineto
stroke
newpath
563 27 moveto
444 27 lineto
444 27 lineto
432 27 lineto
stroke
newpath
680 76 moveto
680 39 lineto
680 39 lineto
680 27 lineto
601 27 lineto
601 27 lineto
567 27 lineto
stroke
newpath
525 97 moveto
525 283 lineto
582 283 lineto
stroke
newpath
464 331 moveto
409 331 lineto
409 97 lineto
stroke
newpath
743 558 moveto
743 531 lineto
707 531 lineto
707 521 lineto
stroke
newpath
563 97 moveto
563 457 lineto
582 457 lineto
stroke
newpath
659 97 moveto
659 409 lineto
693 409 lineto
stroke
newpath
428 97 moveto
428 402 lineto
464 402 lineto
stroke
newpath
464 260 moveto
352 260 lineto
352 97 lineto
stroke
newpath
640 97 moveto
640 338 lineto
693 338 lineto
stroke
newpath
678 97 moveto
678 513 lineto
693 513 lineto
stroke
newpath
464 299 moveto
390 299 lineto
390 97 lineto
stroke
newpath
478 291 moveto
478 268 lineto
stroke
newpath
596 465 moveto
596 481 lineto
693 481 lineto
stroke
newpath
596 346 moveto
596 325 lineto
596 325 lineto
596 323 lineto
stroke
newpath
493 386 moveto
537 386 lineto
537 386 lineto
582 386 lineto
stroke
newpath
813 558 moveto
813 133 lineto
295 133 lineto
295 97 lineto
stroke
newpath
349 -59 moveto
349 -49 lineto
349 -49 lineto
349 76 lineto
stroke
newpath
311 -59 moveto
311 -49 lineto
311 -49 lineto
311 76 lineto
stroke
newpath
293 -59 moveto
293 76 lineto
stroke
newpath
291 -61 moveto
269 -61 lineto
stroke
newpath
309 -61 moveto
302 -61 lineto
302 -61 lineto
295 -61 lineto
stroke
newpath
347 -61 moveto
324 -61 lineto
324 -61 lineto
313 -61 lineto
stroke
newpath
387 76 moveto
387 -61 lineto
351 -61 lineto
stroke
newpath
406 -49 moveto
406 76 lineto
stroke
newpath
369 -49 moveto
369 76 lineto
stroke
newpath
330 -49 moveto
330 76 lineto
stroke
newpath
328 -51 moveto
292 -51 lineto
292 -51 lineto
269 -51 lineto
stroke
newpath
367 -51 moveto
343 -51 lineto
343 -51 lineto
332 -51 lineto
stroke
newpath
404 -51 moveto
381 -51 lineto
381 -51 lineto
371 -51 lineto
stroke
newpath
425 76 moveto
425 -51 lineto
408 -51 lineto
stroke
newpath
541 -39 moveto
541 76 lineto
stroke
newpath
522 -39 moveto
522 76 lineto
stroke
newpath
503 -39 moveto
503 18 lineto
503 18 lineto
503 76 lineto
stroke
newpath
501 -41 moveto
346 -41 lineto
346 -41 lineto
269 -41 lineto
stroke
newpath
520 -41 moveto
505 -41 lineto
stroke
newpath
539 -41 moveto
532 -41 lineto
532 -41 lineto
524 -41 lineto
stroke
newpath
560 76 moveto
560 -29 lineto
560 -29 lineto
560 -41 lineto
549 -41 lineto
549 -41 lineto
543 -41 lineto
stroke
newpath
508 -1 moveto
508 37 lineto
508 37 lineto
508 76 lineto
stroke
newpath
335 -1 moveto
335 76 lineto
stroke
newpath
298 -1 moveto
298 76 lineto
stroke
newpath
296 -3 moveto
269 -3 lineto
stroke
newpath
333 -3 moveto
310 -3 lineto
310 -3 lineto
300 -3 lineto
stroke
newpath
506 -3 moveto
376 -3 lineto
376 -3 lineto
337 -3 lineto
stroke
newpath
623 76 moveto
623 9 lineto
623 9 lineto
623 -3 lineto
544 -3 lineto
544 -3 lineto
510 -3 lineto
stroke
newpath
783 558 moveto
783 283 lineto
722 283 lineto
stroke
newpath
527 9 moveto
527 19 lineto
527 19 lineto
527 76 lineto
stroke
newpath
374 9 moveto
374 76 lineto
stroke
newpath
316 9 moveto
316 76 lineto
stroke
newpath
314 7 moveto
285 7 lineto
285 7 lineto
269 7 lineto
stroke
newpath
372 7 moveto
339 7 lineto
339 7 lineto
318 7 lineto
stroke
newpath
525 7 moveto
409 7 lineto
409 7 lineto
376 7 lineto
stroke
newpath
642 76 moveto
642 19 lineto
642 19 lineto
642 7 lineto
563 7 lineto
563 7 lineto
529 7 lineto
stroke
newpath
656 -29 moveto
656 76 lineto
stroke
newpath
637 -29 moveto
637 76 lineto
stroke
newpath
618 -29 moveto
618 76 lineto
stroke
newpath
616 -31 moveto
399 -31 lineto
399 -31 lineto
269 -31 lineto
stroke
newpath
635 -31 moveto
620 -31 lineto
stroke
newpath
654 -31 moveto
639 -31 lineto
stroke
newpath
675 76 moveto
675 -31 lineto
658 -31 lineto
stroke
newpath
707 330 moveto
707 307 lineto
stroke
newpath
793 558 moveto
793 228 lineto
611 228 lineto
stroke
newpath
596 394 moveto
596 417 lineto
stroke
newpath
611 299 moveto
653 299 lineto
653 299 lineto
693 299 lineto
stroke
newpath
478 410 moveto
478 425 lineto
582 425 lineto
stroke
newpath
464 228 moveto
371 228 lineto
371 97 lineto
stroke
newpath
333 97 moveto
333 157 lineto
464 157 lineto
stroke
newpath
493 244 moveto
537 244 lineto
537 244 lineto
582 244 lineto
stroke
newpath
753 558 moveto
753 497 lineto
722 497 lineto
stroke
newpath
478 197 moveto
478 211 lineto
478 211 lineto
478 220 lineto
stroke
newpath
493 315 moveto
537 315 lineto
537 315 lineto
582 315 lineto
stroke
newpath
763 558 moveto
763 425 lineto
722 425 lineto
stroke
newpath
611 370 moveto
672 370 lineto
672 370 lineto
693 370 lineto
stroke
newpath
505 97 moveto
505 212 lineto
582 212 lineto
stroke
newpath
314 97 moveto
314 189 lineto
464 189 lineto
stroke
newpath
596 275 moveto
596 258 lineto
596 258 lineto
596 252 lineto
stroke
newpath
447 122 moveto
447 348 lineto
478 348 lineto
478 362 lineto
stroke
newpath
445 120 moveto
267 120 lineto
267 98 lineto
stroke
newpath
476 120 moveto
459 120 lineto
459 120 lineto
449 120 lineto
stroke
newpath
596 118 moveto
596 141 lineto
596 141 lineto
596 204 lineto
stroke
newpath
598 120 moveto
707 120 lineto
707 259 lineto
stroke
newpath
480 120 moveto
512 120 lineto
512 120 lineto
594 120 lineto
stroke
newpath
478 149 moveto
478 73 lineto
478 73 lineto
478 118 lineto
stroke
244 12 sizesymbol
(8) 65 244 9 wirelabel
2 setlinewidth
newpath
263 12 moveto
225 12 lineto
225 -15 lineto
stroke
678 87 -270 psand
352 87 -270 psand
293 -61 0 joint
145 -17 0 joint
-245 148 0 joint
[
  (4)
  (3:0)
] 30 80 -43 -90 psconcat
false -26 69 0 psjkff
541 -41 0 joint
349 -61 0 joint
480 386 -90 psadder
503 -41 0 joint
201 33 -90 psand
-147 110 0 joint
201 73 -90 psxor
-331 68 0 joint
-79 332 0 register
-31 14 0 joint
618 -31 0 joint
[
  (3)
  (2)
  (1)
  (0)
] 50 264 -46 -180 psconcat
-283 14 0 joint
-178 66 0 joint
[
  (3)
  (2)
  (1)
  (0)
] 50 264 12 -180 psconcat
295 87 -270 psand
-233 175 0 joint
82 61 0 joint
659 87 -270 psand
-292 195 0 psrshift
428 87 -270 psand
330 -51 0 joint
[
  (0)
] 20 -342 277 0 psconcat
-330 148 0 joint
82 40 -270 psxor
563 87 -270 psand
478 120 0 joint
335 -3 0 joint
201 -99 0 psled_bit
false -278 73 0 psjkff
371 87 -270 psand
267 92 -180 psground
[
  (11:0)
  (23:12)
] 30 -290 296 -270 psconcat
-370 47 0 joint
314 87 -270 psand
508 -3 0 joint
-57 64 0 joint
-152 14 0 joint
709 425 -90 psadder
333 87 -270 psand
311 -61 0 joint
82 95 0 joint
505 87 -270 psand
354 17 0 joint
369 -51 0 joint
-396 68 0 joint
656 -31 0 joint
598 228 -90 psadder
709 497 -90 psadder
598 299 -90 psadder
225 -17 0 joint
-379 148 0 joint
-80 64 0 psand
620 87 -270 psand
525 87 -270 psand
390 87 -270 psand
406 -51 0 joint
-235 386 0 joint
-379 277 0 joint
640 87 -270 psand
546 17 0 joint
598 441 -90 psadder
-21 21 0 joint
-245 68 0 joint
[
  (0)
  (1)
] 30 -292 220 -90 psconcat
50 0 100 -461 110 0 psclock
80 -93 -270 switchgate
298 -3 0 joint
480 173 -90 psadder
-116 66 0 joint
-186 196 0 pslshift
[
  (0)
  (1)
  (2)
  (3)
] 50 43 -23 0 psconcat
82 78 -270 psand
[
  (0)
  (1)
  (2)
  (3)
  (4)
  (5)
  (6)
  (7)
] 90 778 563 -270 psconcat
709 283 -90 psadder
-180 333 -90 psadder
-207 66 0 psand
-116 148 0 joint
-469 148 -270 psground
374 7 0 joint
392 27 0 joint
430 27 0 joint
480 244 -90 psadder
527 7 0 joint
-285 260 -270 psand
64 14 0 joint
-273 21 0 joint
false -147 71 0 psjkff
565 27 0 joint
522 -41 0 joint
-309 68 0 joint
-278 110 0 joint
false -365 73 0 psjkff
709 354 -90 psadder
596 120 0 joint
(9) 145 -97 0 psdip
411 17 0 joint
447 120 0 joint
-186 161 0 joint
-142 21 0 joint
637 -31 0 joint
409 87 -270 psand
316 7 0 joint
-79 376 0 joint
-365 110 0 joint
544 87 -270 psand
480 315 -90 psadder
598 370 -90 psadder
grestore
EM
EP
%%Tailer
