[12/09/11 19:17:27] Escutando na porta 10000.
[12/09/11 19:19:39] Conexão realizada com 10.254.28.82:56038.
[12/09/11 19:19:39] Tentativa 1 para www.google.com.br.
[12/09/11 19:19:40] Requisitando ping em www.google.com.br para 10.254.28.239:10001.
[12/09/11 19:19:42] Fechando conexão com o cliente 10.254.28.82:56038.
