./client.pl --remote-host 10.254.32.168 --remote-port 10000 --ping-address 654.123.654.123
[12/09/11 19:07:27] Iniciando cliente em 10.254.28.82:.
[12/09/11 19:07:27] Iniciando conexão com 10.254.32.168:10000.
[12/09/11 19:07:27] Requisitando ping em 654.123.654.123 para 10.254.32.168:10000.
[12/09/11 19:07:31] [FALHA] 654.123.654.123 não está acessível.
[12/09/11 19:07:31] Fechando conexão.
