[12/09/11 19:14:28] Escutando na porta 10002.
[12/09/11 19:17:26] Conexão realizada com 10.254.28.239:45441.
[12/09/11 19:17:26] Tentativa 1 para www.inf.ufpr.br.
[12/09/11 19:17:27] [SUCESSO] www.inf.ufpr.br está acessível.
[12/09/11 19:17:27] Informando cliente 10.254.28.239:45441 do sucesso.
[12/09/11 19:17:27] Fechando conexão com o cliente 10.254.28.239:45441.
