\relax 
\catcode`"\active
\select@language{brazilian}
\@writefile{toc}{\select@language{brazilian}}
\@writefile{lof}{\select@language{brazilian}}
\@writefile{lot}{\select@language{brazilian}}
\@writefile{toc}{\contentsline {section}{\numberline {1}Estrutura}{1}}
\@writefile{toc}{\contentsline {section}{\numberline {2}Programa Principal}{1}}
\@writefile{toc}{\contentsline {section}{\numberline {3}Cliente}{1}}
\@writefile{toc}{\contentsline {section}{\numberline {4}Servidor}{1}}
\@writefile{toc}{\contentsline {section}{\numberline {5}Troca de Arquivos}{2}}
\@writefile{toc}{\contentsline {section}{\numberline {6}Administra\IeC {\c c}\IeC {\~a}o de Pacotes}{2}}
